{
	"coc.preferences.formatOnSaveFiletypes": [
		"css",
		"markdown",
		"javascript",
		"graphql",
		"html",
		"yaml",
		"json",
		"python"
	],
	// python config
	"python.linting.enabled": true,
	"python.linting.pylintEnabled": true,
	// r config
	"r.lsp.path": "/usr/bin/R",
	"r.lsp.debug": true,
	"r.lsp.diagnostics": true,
	"snippets.ultisnips.directories": [
		"UltiSnips",
		"~/.config/nvim/utils/snips"
	]
}
